/home/mat/Documents/projects/personal_data_generator/src/main/java/provider/personaldocumentdetails/identifiers/PersonalIdentifierGenerator.java
/home/mat/Documents/projects/personal_data_generator/src/main/java/pojo/BirthdayDetails.java
/home/mat/Documents/projects/personal_data_generator/src/main/java/pojo/ParentsDetails.java
/home/mat/Documents/projects/personal_data_generator/src/main/java/provider/utils/ExcelReader.java
/home/mat/Documents/projects/personal_data_generator/src/main/java/provider/personaldocumentdetails/identifiers/PassportGenerator.java
/home/mat/Documents/projects/personal_data_generator/src/main/java/pojo/Pesel.java
/home/mat/Documents/projects/personal_data_generator/src/main/java/provider/BirthDayDetailsProvider.java
/home/mat/Documents/projects/personal_data_generator/src/main/java/provider/HomeAddressProvider.java
/home/mat/Documents/projects/personal_data_generator/src/main/java/provider/personaldocumentdetails/IdentifierProvider.java
/home/mat/Documents/projects/personal_data_generator/src/main/java/pojo/PersonalCredentials.java
/home/mat/Documents/projects/personal_data_generator/src/main/java/pojo/userenum/PersonalDocumentType.java
/home/mat/Documents/projects/personal_data_generator/src/main/java/provider/personaldocumentdetails/identifiers/NumberGenerator.java
/home/mat/Documents/projects/personal_data_generator/src/main/java/pojo/userenum/Gender.java
/home/mat/Documents/projects/personal_data_generator/src/main/java/pojo/home_address/Numeracja.java
/home/mat/Documents/projects/personal_data_generator/src/main/java/pojo/Identifier.java
/home/mat/Documents/projects/personal_data_generator/src/main/java/provider/PeselProvider.java
/home/mat/Documents/projects/personal_data_generator/src/main/java/provider/ParentsDetailsProvider.java
/home/mat/Documents/projects/personal_data_generator/src/main/java/pojo/User.java
/home/mat/Documents/projects/personal_data_generator/src/main/java/pojo/home_address/HomeAddress.java
/home/mat/Documents/projects/personal_data_generator/src/main/java/Main.java
/home/mat/Documents/projects/personal_data_generator/src/main/java/provider/PersonalCredentialsProvider.java
